Tidy Data Frames of Marginal Effects
…
Consistent and tidy structure

The returned data frames always have the same, consistent structure and column names, so it’s easy to create ggplot-plots without the need to re-write the arguments to be mapped in each ggplot-call. x and predicted are the values for the x- and y-axis. conf.low and conf.high could be used as ymin and ymax aesthetics for ribbons to add confidence bands to the plot. group can be used as grouping-aesthetics, or for faceting.

Marginal effects at the mean

ggpredict() computes predicted values for all possible levels and values from a model’s predictors. In the simplest case, a fitted model is passed as first argument, and the term in question as second argument:

library(ggeffects)
data(efc)
fit <- lm(barthtot ~ c12hour + neg_c_7 + c161sex + c172code, data = efc)

ggpredict(fit, terms = "c12hour")
#> # A tibble: 62 x 5
#>        x predicted conf.low conf.high  group
#>    <dbl>     <dbl>    <dbl>     <dbl> <fctr>
#>  1     4  74.43040 72.33073  76.53006      1
#>  2     5  74.17710 72.09831  76.25588      1
#>  3     6  73.92379 71.86555  75.98204      1
#>  4     7  73.67049 71.63242  75.70857      1
#>  5     8  73.41719 71.39892  75.43546      1
#>  6     9  73.16389 71.16504  75.16275      1
#>  7    10  72.91059 70.93076  74.89042      1
#>  8    11  72.65729 70.69608  74.61850      1
#>  9    12  72.40399 70.46098  74.34700      1
#> 10    14  71.89738 69.98948  73.80529      1
#> # ... with 52 more rows
…
Marginal effects at the mean for different groups

The terms-argument accepts up to three model terms, where the second and third term indicate grouping levels. This allows predictions for the term in question at different levels for other model terms:

ggpredict(fit, terms = c("c12hour", "c172code"))
#> # A tibble: 186 x 5
#>        x predicted conf.low conf.high                           group
#>    <dbl>     <dbl>    <dbl>     <dbl>                          <fctr>
#>  1     4  73.73319 70.31769  77.14869          low level of education
#>  2     4  74.45155 72.35552  76.54759 intermediate level of education
#>  3     4  75.16991 71.84707  78.49275         high level of education
#>  4     5  73.47989 70.07989  76.87990          low level of education
#>  5     5  74.19825 72.12300  76.27350 intermediate level of education
#>  6     5  74.91661 71.60399  78.22923         high level of education
#>  7     6  73.22659 69.84181  76.61137          low level of education
#>  8     6  73.94495 71.89013  75.99976 intermediate level of education
#>  9     6  74.66331 71.36058  77.96603         high level of education
#> 10     7  72.97329 69.60346  76.34312          low level of education
#> # ... with 176 more rows
…
Finally, a second grouping structure can be defined, which will create another column named facet, which - as the name implies - might be used to create a facted plot:

mydf <- ggpredict(fit, terms = c("c12hour", "c172code", "c161sex"))
mydf
#> # A tibble: 372 x 6
#>        x predicted conf.low conf.high                           group      facet
#>    <dbl>     <dbl>    <dbl>     <dbl>                          <fctr>     <fctr>
#>  1     4  73.98237 70.45711  77.50763          low level of education [2] Female
#>  2     4  72.94094 68.38540  77.49649          low level of education   [1] Male
#>  3     4  74.70073 72.38031  77.02114 intermediate level of education [2] Female
#>  4     4  73.65930 70.08827  77.23033 intermediate level of education   [1] Male
#>  5     4  75.41908 71.91747  78.92070         high level of education [2] Female
#>  6     4  74.37766 70.05658  78.69874         high level of education   [1] Male
#>  7     5  73.72907 70.21926  77.23888          low level of education [2] Female
#>  8     5  72.68764 68.14262  77.23266          low level of education   [1] Male
#>  9     5  74.44742 72.14644  76.74841 intermediate level of education [2] Female
#> 10     5  73.40600 69.84575  76.96625 intermediate level of education   [1] Male
#> # ... with 362 more rows
…
